Stage3_FlowControl_ExtendedISA/Part4_FlowControl/cpu_wavedata.vcd
$date
	Wed Nov  4 16:19:57 2020
$end
$version
	Icarus Verilog
$end
$timescale
	1s
$end
$scope module cpu_tb $end
$var wire 32 ! PC [31:0] $end
$var wire 32 " INSTRUCTION [31:0] $end
$var reg 1 # CLK $end
$var reg 1 $ RESET $end
$scope module mycpu $end
$var wire 1 % ANDOUT $end
$var wire 1 # CLK $end
$var wire 32 & INSTRUCTION [31:0] $end
$var wire 1 $ RESET $end
$var wire 1 ' SELECT3 $end
$var wire 1 ( ZERO $end
$var wire 1 ) WRITEENABLE $end
$var wire 1 * SELECT2 $end
$var wire 1 + SELECT1 $end
$var wire 8 , REGOUT2 [7:0] $end
$var wire 8 - REGOUT1 [7:0] $end
$var wire 32 . PCPLUSOFFSET [31:0] $end
$var wire 32 / PCMUXRESULT [31:0] $end
$var wire 8 0 NEGATIVEVALUE [7:0] $end
$var wire 8 1 MUX2OUT [7:0] $end
$var wire 8 2 MUX1OUT [7:0] $end
$var wire 1 3 JSIGNAL $end
$var wire 1 4 BEQSIGNAL $end
$var wire 8 5 ALURESULT [7:0] $end
$var wire 3 6 ALUOP [2:0] $end
$var reg 32 7 ADDOPERAND [31:0] $end
$var reg 8 8 IMMRDIATE [7:0] $end
$var reg 8 9 OFFSET [7:0] $end
$var reg 8 : OPCODE [7:0] $end
$var reg 32 ; PC [31:0] $end
$var reg 32 < PCPLUS4 [31:0] $end
$var reg 3 = READREG1 [2:0] $end
$var reg 3 > READREG2 [2:0] $end
$var reg 3 ? WRITEREG [2:0] $end
$scope module my2scomplement $end
$var wire 8 @ data [7:0] $end
$var reg 8 A complement [7:0] $end
$upscope $end
$scope module myalu $end
$var wire 3 B SELECT [2:0] $end
$var wire 8 C ORwire [7:0] $end
$var wire 8 D FWwire [7:0] $end
$var wire 8 E DATA2 [7:0] $end
$var wire 8 F DATA1 [7:0] $end
$var wire 8 G ANDwire [7:0] $end
$var wire 8 H ADDwire [7:0] $end
$var reg 8 I RESULT [7:0] $end
$var reg 1 ( ZERO $end
$scope module myADD $end
$var wire 8 J DATA2 [7:0] $end
$var wire 8 K DATA1 [7:0] $end
$var reg 8 L RESULT [7:0] $end
$upscope $end
$scope module myAND $end
$var wire 8 M DATA2 [7:0] $end
$var wire 8 N DATA1 [7:0] $end
$var reg 8 O RESULT [7:0] $end
$upscope $end
$scope module myFORWARD $end
$var wire 8 P DATA2 [7:0] $end
$var reg 8 Q RESULT [7:0] $end
$upscope $end
$scope module myOR $end
$var wire 8 R DATA2 [7:0] $end
$var wire 8 S DATA1 [7:0] $end
$var reg 8 T RESULT [7:0] $end
$upscope $end
$upscope $end
$scope module myctrlunit $end
$var wire 8 U OPCODE [7:0] $end
$var reg 3 V ALUOP [2:0] $end
$var reg 1 4 BEQSIGNAL $end
$var reg 1 3 JSIGNAL $end
$var reg 1 + SELECT1 $end
$var reg 1 * SELECT2 $end
$var reg 1 ) WRITEENABLE $end
$upscope $end
$scope module mymux1 $end
$var wire 8 W DATA1 [7:0] $end
$var wire 1 + SELECT $end
$var wire 8 X DATA0 [7:0] $end
$var reg 8 Y OUT [7:0] $end
$upscope $end
$scope module mymux2 $end
$var wire 8 Z DATA0 [7:0] $end
$var wire 8 [ DATA1 [7:0] $end
$var wire 1 * SELECT $end
$var reg 8 \ OUT [7:0] $end
$upscope $end
$scope module mypcadder $end
$var wire 32 ] DATA1 [31:0] $end
$var wire 32 ^ DATA2 [31:0] $end
$var wire 32 _ INSTUCTION [31:0] $end
$var reg 32 ` RESULT [31:0] $end
$upscope $end
$scope module mypcmux $end
$var wire 32 a DATA0 [31:0] $end
$var wire 32 b DATA1 [31:0] $end
$var wire 1 ' SELECT $end
$var reg 32 c OUT [31:0] $end
$upscope $end
$scope module myregfile $end
$var wire 1 # CLK $end
$var wire 8 d IN [7:0] $end
$var wire 3 e INADDRESS [2:0] $end
$var wire 3 f OUT1ADDRESS [2:0] $end
$var wire 3 g OUT2ADDRESS [2:0] $end
$var wire 1 $ RESET $end
$var wire 1 ) WRITE $end
$var reg 8 h OUT1 [7:0] $end
$var reg 8 i OUT2 [7:0] $end
$var integer 32 j counter [31:0] $end
$upscope $end
$upscope $end
$upscope $end
$enddefinitions $end
#0
$dumpvars
bx j
bx i
bx h
bx g
bx f
bx e
bx d
bx c
bx b
b0 a
bx `
bx _
bx ^
b0 ]
bx \
bx [
bx Z
bx Y
bx X
bx W
bx V
bx U
bx T
bx S
bx R
bx Q
bx P
bx O
bx N
bx M
bx L
bx K
bx J
bx I
bx H
bx G
bx F
bx E
bx D
bx C
bx B
bx A
bx @
bx ?
bx >
bx =
b0 <
bx ;
bx :
bx 9
bx 8
bx 7
bx 6
bx 5
x4
x3
bx 2
bx 1
bx 0
bx /
bx .
bx -
bx ,
x+
x*
x)
x(
x'
bx &
x%
1$
0#
bx "
bx !
$end
#4
1#
#5
b1000 j
b0 !
b0 ;
0$
#6
b100 <
b100 ]
b100 a
#7
b10000 7
b10000 ^
b100 9
b1010 8
b1010 Z
b111 :
b111 U
b100 ?
b100 e
b10 >
b10 g
b0 =
b0 f
b111000001000000000000001010 "
b111000001000000000000001010 &
b111000001000000000000001010 _
#8
b100 /
b100 c
b1010 1
b1010 E
b1010 J
b1010 M
b1010 P
b1010 R
b1010 \
0'
0%
03
04
1)
b0 6
b0 B
b0 V
0*
0+
0#
#9
b0 2
b0 Y
b0 [
0(
b1010 5
b1010 I
b1010 d
b1010 C
b1010 T
b0 G
b0 O
b1010 D
b1010 Q
b0 ,
b0 @
b0 X
b0 i
b0 -
b0 F
b0 K
b0 N
b0 S
b0 h
b10100 .
b10100 `
b10100 b
#10
b0 0
b0 A
b0 W
b1010 H
b1010 L
#12
1#
#13
b100 !
b100 ;
#14
b1000 /
b1000 c
b1000 <
b1000 ]
b1000 a
#15
b1 1
b1 E
b1 J
b1 M
b1 P
b1 R
b1 \
b10100 7
b10100 ^
b101 9
b1 8
b1 Z
b101 ?
b101 e
b1 >
b1 g
b111000001010000000000000001 "
b111000001010000000000000001 &
b111000001010000000000000001 _
#16
b1 5
b1 I
b1 d
b1 C
b1 T
b1 D
b1 Q
0#
#17
b1 H
b1 L
b11100 .
b11100 `
b11100 b
#20
1#
#21
b1000 !
b1000 ;
#22
b1100 /
b1100 c
b1100 <
b1100 ]
b1100 a
#23
b11000 7
b11000 ^
b110 9
b110 ?
b110 e
b111000001100000000000000001 "
b111000001100000000000000001 &
b111000001100000000000000001 _
#24
0#
#25
b100100 .
b100100 `
b100100 b
#28
1#
#29
b1100 !
b1100 ;
#30
b10000 /
b10000 c
b10000 <
b10000 ]
b10000 a
#31
b1001 1
b1001 E
b1001 J
b1001 M
b1001 P
b1001 R
b1001 \
b11100 7
b11100 ^
b111 9
b1001 8
b1001 Z
b111 ?
b111 e
b111000001110000000000001001 "
b111000001110000000000001001 &
b111000001110000000000001001 _
#32
b1001 5
b1001 I
b1001 d
b1001 C
b1001 T
b1001 D
b1001 Q
0#
#33
b1001 H
b1001 L
b101100 .
b101100 `
b101100 b
#36
1#
#37
b10000 !
b10000 ;
#38
b10100 /
b10100 c
b10100 <
b10100 ]
b10100 a
#39
b101 1
b101 E
b101 J
b101 M
b101 P
b101 R
b101 \
b10000 7
b10000 ^
b100 9
b101 8
b101 Z
b1 :
b1 U
b100 ?
b100 e
b101 >
b101 g
b100 =
b100 f
b1000001000000010000000101 "
b1000001000000010000000101 &
b1000001000000010000000101 _
#40
b0 1
b0 E
b0 J
b0 M
b0 P
b0 R
b0 \
b101 C
b101 T
b101 D
b101 Q
b1 6
b1 B
b1 V
1*
1+
0#
#41
b1010 5
b1010 I
b1010 d
b1010 C
b1010 T
b0 D
b0 Q
b1010 H
b1010 L
b1 ,
b1 @
b1 X
b1 i
b1010 -
b1010 F
b1010 K
b1010 N
b1010 S
b1010 h
b100100 .
b100100 `
b100100 b
#42
b11111111 1
b11111111 E
b11111111 J
b11111111 M
b11111111 P
b11111111 R
b11111111 \
b11111111 2
b11111111 Y
b11111111 [
b11111111 0
b11111111 A
b11111111 W
#43
b1010 G
b1010 O
b11111111 C
b11111111 T
b11111111 D
b11111111 Q
#44
b1001 5
b1001 I
b1001 d
b1001 H
b1001 L
1#
#45
b10100 !
b10100 ;
#46
b11000 /
b11000 c
b11000 <
b11000 ]
b11000 a
#47
b100 7
b100 ^
b1 9
b110 8
b110 Z
b101 :
b101 U
b1 ?
b1 e
b110 >
b110 g
b101000000010000010000000110 "
b101000000010000010000000110 &
b101000000010000010000000110 _
b1001 -
b1001 F
b1001 K
b1001 N
b1001 S
b1001 h
#48
14
0)
b1001 G
b1001 O
0#
#49
b1000 5
b1000 I
b1000 d
b11100 .
b11100 `
b11100 b
b1000 H
b1000 L
#52
1#
#53
b11000 !
b11000 ;
#54
b11100 /
b11100 c
b11100 <
b11100 ]
b11100 a
#55
b11111111111111111111111111110100 7
b11111111111111111111111111110100 ^
b11111101 9
b0 8
b0 Z
b100 :
b100 U
b101 ?
b101 e
b0 >
b0 g
b0 =
b0 f
b100111111010000000000000000 "
b100111111010000000000000000 &
b100111111010000000000000000 _
#56
b1 1
b1 E
b1 J
b1 M
b1 P
b1 R
b1 \
b1 2
b1 Y
b1 [
1'
b11111111 5
b11111111 I
b11111111 d
13
04
b0 6
b0 B
b0 V
0+
0#
#57
b0 1
b0 E
b0 J
b0 M
b0 P
b0 R
b0 \
b0 2
b0 Y
b0 [
b10000 /
b10000 c
b1 5
b1 I
b1 d
b0 G
b0 O
b1 C
b1 T
b1 D
b1 Q
b0 ,
b0 @
b0 X
b0 i
b0 -
b0 F
b0 K
b0 N
b0 S
b0 h
b10000 .
b10000 `
b10000 b
#58
1(
b0 5
b0 I
b0 d
b0 C
b0 T
b0 D
b0 Q
b0 0
b0 A
b0 W
b0 H
b0 L
#60
1#
#61
b10000 !
b10000 ;
#62
b10100 <
b10100 ]
b10100 a
#63
b10000 7
b10000 ^
b100 9
b101 8
b101 Z
b1 :
b1 U
b100 ?
b100 e
b101 >
b101 g
b100 =
b100 f
b1000001000000010000000101 "
b1000001000000010000000101 &
b1000001000000010000000101 _
#64
b10100 /
b10100 c
0'
03
1)
b1 6
b1 B
b1 V
1+
0#
#65
b1 ,
b1 @
b1 X
b1 i
b1001 -
b1001 F
b1001 K
b1001 N
b1001 S
b1001 h
b100100 .
b100100 `
b100100 b
#66
b11111111 1
b11111111 E
b11111111 J
b11111111 M
b11111111 P
b11111111 R
b11111111 \
b11111111 2
b11111111 Y
b11111111 [
b11111111 0
b11111111 A
b11111111 W
b1001 C
b1001 T
#67
0(
b1000 5
b1000 I
b1000 d
b11111111 C
b11111111 T
b1001 G
b1001 O
b11111111 D
b11111111 Q
b1000 H
b1000 L
#68
1#
#69
b10100 !
b10100 ;
#70
b11000 /
b11000 c
b11000 <
b11000 ]
b11000 a
#71
b100 7
b100 ^
b1 9
b110 8
b110 Z
b101 :
b101 U
b1 ?
b1 e
b110 >
b110 g
b1000 -
b1000 F
b1000 K
b1000 N
b1000 S
b1000 h
b101000000010000010000000110 "
b101000000010000010000000110 &
b101000000010000010000000110 _
#72
14
0)
b1000 G
b1000 O
0#
#73
b111 5
b111 I
b111 d
b111 H
b111 L
b11100 .
b11100 `
b11100 b
#76
1#
#77
b11000 !
b11000 ;
#78
b11100 /
b11100 c
b11100 <
b11100 ]
b11100 a
#79
b11111111111111111111111111110100 7
b11111111111111111111111111110100 ^
b11111101 9
b0 8
b0 Z
b100 :
b100 U
b101 ?
b101 e
b0 >
b0 g
b0 =
b0 f
b100111111010000000000000000 "
b100111111010000000000000000 &
b100111111010000000000000000 _
#80
b1 1
b1 E
b1 J
b1 M
b1 P
b1 R
b1 \
b1 2
b1 Y
b1 [
1'
b11111111 5
b11111111 I
b11111111 d
13
04
b0 6
b0 B
b0 V
0+
0#
#81
b0 1
b0 E
b0 J
b0 M
b0 P
b0 R
b0 \
b0 2
b0 Y
b0 [
b10000 /
b10000 c
b1 5
b1 I
b1 d
b1 C
b1 T
b0 G
b0 O
b1 D
b1 Q
b0 ,
b0 @
b0 X
b0 i
b0 -
b0 F
b0 K
b0 N
b0 S
b0 h
b10000 .
b10000 `
b10000 b
#82
1(
b0 5
b0 I
b0 d
b0 C
b0 T
b0 D
b0 Q
b0 0
b0 A
b0 W
b0 H
b0 L
#84
1#
#85
b10000 !
b10000 ;
#86
b10100 <
b10100 ]
b10100 a
#87
b10000 7
b10000 ^
b100 9
b101 8
b101 Z
b1 :
b1 U
b100 ?
b100 e
b101 >
b101 g
b100 =
b100 f
b1000001000000010000000101 "
b1000001000000010000000101 &
b1000001000000010000000101 _
#88
b10100 /
b10100 c
0'
03
1)
b1 6
b1 B
b1 V
1+
0#
#89
b1 ,
b1 @
b1 X
b1 i
b1000 -
b1000 F
b1000 K
b1000 N
b1000 S
b1000 h
b100100 .
b100100 `
b100100 b
#90
b11111111 1
b11111111 E
b11111111 J
b11111111 M
b11111111 P
b11111111 R
b11111111 \
b11111111 2
b11111111 Y
b11111111 [
b11111111 0
b11111111 A
b11111111 W
b1000 C
b1000 T
#91
0(
b111 5
b111 I
b111 d
b1000 G
b1000 O
b11111111 C
b11111111 T
b11111111 D
b11111111 Q
b111 H
b111 L
#92
1#
#93
b10100 !
b10100 ;
#94
b11000 /
b11000 c
b11000 <
b11000 ]
b11000 a
#95
b100 7
b100 ^
b1 9
b110 8
b110 Z
b101 :
b101 U
b1 ?
b1 e
b110 >
b110 g
b111 -
b111 F
b111 K
b111 N
b111 S
b111 h
b101000000010000010000000110 "
b101000000010000010000000110 &
b101000000010000010000000110 _
#96
14
0)
b111 G
b111 O
0#
#97
b110 5
b110 I
b110 d
b110 H
b110 L
b11100 .
b11100 `
b11100 b
#100
1#
#101
b11000 !
b11000 ;
#102
b11100 /
b11100 c
b11100 <
b11100 ]
b11100 a
#103
b11111111111111111111111111110100 7
b11111111111111111111111111110100 ^
b11111101 9
b0 8
b0 Z
b100 :
b100 U
b101 ?
b101 e
b0 >
b0 g
b0 =
b0 f
b100111111010000000000000000 "
b100111111010000000000000000 &
b100111111010000000000000000 _
#104
b1 1
b1 E
b1 J
b1 M
b1 P
b1 R
b1 \
b1 2
b1 Y
b1 [
1'
b11111111 5
b11111111 I
b11111111 d
13
04
b0 6
b0 B
b0 V
0+
0#
#105
b0 1
b0 E
b0 J
b0 M
b0 P
b0 R
b0 \
b0 2
b0 Y
b0 [
b10000 /
b10000 c
b1 5
b1 I
b1 d
b0 G
b0 O
b1 C
b1 T
b1 D
b1 Q
b0 ,
b0 @
b0 X
b0 i
b0 -
b0 F
b0 K
b0 N
b0 S
b0 h
b10000 .
b10000 `
b10000 b
#106
1(
b0 5
b0 I
b0 d
b0 C
b0 T
b0 D
b0 Q
b0 0
b0 A
b0 W
b0 H
b0 L
#108
1#
#109
b10000 !
b10000 ;
#110
b10100 <
b10100 ]
b10100 a
#111
b10000 7
b10000 ^
b100 9
b101 8
b101 Z
b1 :
b1 U
b100 ?
b100 e
b101 >
b101 g
b100 =
b100 f
b1000001000000010000000101 "
b1000001000000010000000101 &
b1000001000000010000000101 _
#112
b10100 /
b10100 c
0'
03
1)
b1 6
b1 B
b1 V
1+
0#
#113
b1 ,
b1 @
b1 X
b1 i
b111 -
b111 F
b111 K
b111 N
b111 S
b111 h
b100100 .
b100100 `
b100100 b
#114
b11111111 1
b11111111 E
b11111111 J
b11111111 M
b11111111 P
b11111111 R
b11111111 \
b11111111 2
b11111111 Y
b11111111 [
b11111111 0
b11111111 A
b11111111 W
b111 C
b111 T
#115
0(
b110 5
b110 I
b110 d
b11111111 C
b11111111 T
b111 G
b111 O
b11111111 D
b11111111 Q
b110 H
b110 L
#116
1#
#117
b10100 !
b10100 ;
#118
b11000 /
b11000 c
b11000 <
b11000 ]
b11000 a
#119
b100 7
b100 ^
b1 9
b110 8
b110 Z
b101 :
b101 U
b1 ?
b1 e
b110 >
b110 g
b110 -
b110 F
b110 K
b110 N
b110 S
b110 h
b101000000010000010000000110 "
b101000000010000010000000110 &
b101000000010000010000000110 _
#120
14
0)
b110 G
b110 O
0#
#121
b101 5
b101 I
b101 d
b101 H
b101 L
b11100 .
b11100 `
b11100 b
#124
1#
#125
b11000 !
b11000 ;
#126
b11100 /
b11100 c
b11100 <
b11100 ]
b11100 a
#127
b11111111111111111111111111110100 7
b11111111111111111111111111110100 ^
b11111101 9
b0 8
b0 Z
b100 :
b100 U
b101 ?
b101 e
b0 >
b0 g
b0 =
b0 f
b100111111010000000000000000 "
b100111111010000000000000000 &
b100111111010000000000000000 _
#128
b1 1
b1 E
b1 J
b1 M
b1 P
b1 R
b1 \
b1 2
b1 Y
b1 [
1'
b11111111 5
b11111111 I
b11111111 d
13
04
b0 6
b0 B
b0 V
0+
0#
#129
b0 1
b0 E
b0 J
b0 M
b0 P
b0 R
b0 \
b0 2
b0 Y
b0 [
b10000 /
b10000 c
b1 5
b1 I
b1 d
b1 C
b1 T
b0 G
b0 O
b1 D
b1 Q
b0 ,
b0 @
b0 X
b0 i
b0 -
b0 F
b0 K
b0 N
b0 S
b0 h
b10000 .
b10000 `
b10000 b
#130
1(
b0 5
b0 I
b0 d
b0 C
b0 T
b0 D
b0 Q
b0 0
b0 A
b0 W
b0 H
b0 L
#132
1#
#133
b10000 !
b10000 ;
#134
b10100 <
b10100 ]
b10100 a
#135
b10000 7
b10000 ^
b100 9
b101 8
b101 Z
b1 :
b1 U
b100 ?
b100 e
b101 >
b101 g
b100 =
b100 f
b1000001000000010000000101 "
b1000001000000010000000101 &
b1000001000000010000000101 _
#136
b10100 /
b10100 c
0'
03
1)
b1 6
b1 B
b1 V
1+
0#
#137
b1 ,
b1 @
b1 X
b1 i
b110 -
b110 F
b110 K
b110 N
b110 S
b110 h
b100100 .
b100100 `
b100100 b
#138
b11111111 1
b11111111 E
b11111111 J
b11111111 M
b11111111 P
b11111111 R
b11111111 \
b11111111 2
b11111111 Y
b11111111 [
b11111111 0
b11111111 A
b11111111 W
b110 C
b110 T
#139
0(
b101 5
b101 I
b101 d
b110 G
b110 O
b11111111 C
b11111111 T
b11111111 D
b11111111 Q
b101 H
b101 L
#140
1#
#141
b10100 !
b10100 ;
#142
b11000 /
b11000 c
b11000 <
b11000 ]
b11000 a
#143
b100 7
b100 ^
b1 9
b110 8
b110 Z
b101 :
b101 U
b1 ?
b1 e
b110 >
b110 g
b101 -
b101 F
b101 K
b101 N
b101 S
b101 h
b101000000010000010000000110 "
b101000000010000010000000110 &
b101000000010000010000000110 _
#144
14
0)
b101 G
b101 O
0#
#145
b100 5
b100 I
b100 d
b100 H
b100 L
b11100 .
b11100 `
b11100 b
#148
1#
#149
b11000 !
b11000 ;
#150
b11100 /
b11100 c
b11100 <
b11100 ]
b11100 a
#151
b11111111111111111111111111110100 7
b11111111111111111111111111110100 ^
b11111101 9
b0 8
b0 Z
b100 :
b100 U
b101 ?
b101 e
b0 >
b0 g
b0 =
b0 f
b100111111010000000000000000 "
b100111111010000000000000000 &
b100111111010000000000000000 _
#152
b1 1
b1 E
b1 J
b1 M
b1 P
b1 R
b1 \
b1 2
b1 Y
b1 [
1'
b11111111 5
b11111111 I
b11111111 d
13
04
b0 6
b0 B
b0 V
0+
0#
#153
b0 1
b0 E
b0 J
b0 M
b0 P
b0 R
b0 \
b0 2
b0 Y
b0 [
b10000 /
b10000 c
b1 5
b1 I
b1 d
b0 G
b0 O
b1 C
b1 T
b1 D
b1 Q
b0 ,
b0 @
b0 X
b0 i
b0 -
b0 F
b0 K
b0 N
b0 S
b0 h
b10000 .
b10000 `
b10000 b
#154
1(
b0 5
b0 I
b0 d
b0 C
b0 T
b0 D
b0 Q
b0 0
b0 A
b0 W
b0 H
b0 L
#156
1#
#157
b10000 !
b10000 ;
#158
b10100 <
b10100 ]
b10100 a
#159
b10000 7
b10000 ^
b100 9
b101 8
b101 Z
b1 :
b1 U
b100 ?
b100 e
b101 >
b101 g
b100 =
b100 f
b1000001000000010000000101 "
b1000001000000010000000101 &
b1000001000000010000000101 _
#160
b10100 /
b10100 c
0'
03
1)
b1 6
b1 B
b1 V
1+
0#
#161
b1 ,
b1 @
b1 X
b1 i
b101 -
b101 F
b101 K
b101 N
b101 S
b101 h
b100100 .
b100100 `
b100100 b
#162
b11111111 1
b11111111 E
b11111111 J
b11111111 M
b11111111 P
b11111111 R
b11111111 \
b11111111 2
b11111111 Y
b11111111 [
b11111111 0
b11111111 A
b11111111 W
b101 C
b101 T
#163
0(
b100 5
b100 I
b100 d
b11111111 C
b11111111 T
b101 G
b101 O
b11111111 D
b11111111 Q
b100 H
b100 L
#164
1#
#165
b10100 !
b10100 ;
#166
b11000 /
b11000 c
b11000 <
b11000 ]
b11000 a
#167
b100 7
b100 ^
b1 9
b110 8
b110 Z
b101 :
b101 U
b1 ?
b1 e
b110 >
b110 g
b100 -
b100 F
b100 K
b100 N
b100 S
b100 h
b101000000010000010000000110 "
b101000000010000010000000110 &
b101000000010000010000000110 _
#168
14
0)
b100 G
b100 O
0#
#169
b11 5
b11 I
b11 d
b11 H
b11 L
b11100 .
b11100 `
b11100 b
#172
1#
#173
b11000 !
b11000 ;
#174
b11100 /
b11100 c
b11100 <
b11100 ]
b11100 a
#175
b11111111111111111111111111110100 7
b11111111111111111111111111110100 ^
b11111101 9
b0 8
b0 Z
b100 :
b100 U
b101 ?
b101 e
b0 >
b0 g
b0 =
b0 f
b100111111010000000000000000 "
b100111111010000000000000000 &
b100111111010000000000000000 _
#176
b1 1
b1 E
b1 J
b1 M
b1 P
b1 R
b1 \
b1 2
b1 Y
b1 [
1'
b11111111 5
b11111111 I
b11111111 d
13
04
b0 6
b0 B
b0 V
0+
0#
#177
b0 1
b0 E
b0 J
b0 M
b0 P
b0 R
b0 \
b0 2
b0 Y
b0 [
b10000 /
b10000 c
b1 5
b1 I
b1 d
b1 C
b1 T
b0 G
b0 O
b1 D
b1 Q
b0 ,
b0 @
b0 X
b0 i
b0 -
b0 F
b0 K
b0 N
b0 S
b0 h
b10000 .
b10000 `
b10000 b
#178
1(
b0 5
b0 I
b0 d
b0 C
b0 T
b0 D
b0 Q
b0 0
b0 A
b0 W
b0 H
b0 L
#180
1#
#181
b10000 !
b10000 ;
#182
b10100 <
b10100 ]
b10100 a
#183
b10000 7
b10000 ^
b100 9
b101 8
b101 Z
b1 :
b1 U
b100 ?
b100 e
b101 >
b101 g
b100 =
b100 f
b1000001000000010000000101 "
b1000001000000010000000101 &
b1000001000000010000000101 _
#184
b10100 /
b10100 c
0'
03
1)
b1 6
b1 B
b1 V
1+
0#
#185
b1 ,
b1 @
b1 X
b1 i
b100 -
b100 F
b100 K
b100 N
b100 S
b100 h
b100100 .
b100100 `
b100100 b
#186
b11111111 1
b11111111 E
b11111111 J
b11111111 M
b11111111 P
b11111111 R
b11111111 \
b11111111 2
b11111111 Y
b11111111 [
b11111111 0
b11111111 A
b11111111 W
b100 C
b100 T
#187
0(
b11 5
b11 I
b11 d
b100 G
b100 O
b11111111 C
b11111111 T
b11111111 D
b11111111 Q
b11 H
b11 L
#188
1#
#189
b10100 !
b10100 ;
#190
b11000 /
b11000 c
b11000 <
b11000 ]
b11000 a
#191
b100 7
b100 ^
b1 9
b110 8
b110 Z
b101 :
b101 U
b1 ?
b1 e
b110 >
b110 g
b11 -
b11 F
b11 K
b11 N
b11 S
b11 h
b101000000010000010000000110 "
b101000000010000010000000110 &
b101000000010000010000000110 _
#192
14
0)
b11 G
b11 O
0#
#193
b10 5
b10 I
b10 d
b10 H
b10 L
b11100 .
b11100 `
b11100 b
#196
1#
#197
b11000 !
b11000 ;
#198
b11100 /
b11100 c
b11100 <
b11100 ]
b11100 a
#199
b11111111111111111111111111110100 7
b11111111111111111111111111110100 ^
b11111101 9
b0 8
b0 Z
b100 :
b100 U
b101 ?
b101 e
b0 >
b0 g
b0 =
b0 f
b100111111010000000000000000 "
b100111111010000000000000000 &
b100111111010000000000000000 _
#200
b1 1
b1 E
b1 J
b1 M
b1 P
b1 R
b1 \
b1 2
b1 Y
b1 [
1'
b11111111 5
b11111111 I
b11111111 d
13
04
b0 6
b0 B
b0 V
0+
0#
#201
b0 1
b0 E
b0 J
b0 M
b0 P
b0 R
b0 \
b0 2
b0 Y
b0 [
b10000 /
b10000 c
b1 5
b1 I
b1 d
b0 G
b0 O
b1 C
b1 T
b1 D
b1 Q
b0 ,
b0 @
b0 X
b0 i
b0 -
b0 F
b0 K
b0 N
b0 S
b0 h
b10000 .
b10000 `
b10000 b
#202
1(
b0 5
b0 I
b0 d
b0 C
b0 T
b0 D
b0 Q
b0 0
b0 A
b0 W
b0 H
b0 L
#204
1#
#205
b10000 !
b10000 ;
#206
b10100 <
b10100 ]
b10100 a
#207
b10000 7
b10000 ^
b100 9
b101 8
b101 Z
b1 :
b1 U
b100 ?
b100 e
b101 >
b101 g
b100 =
b100 f
b1000001000000010000000101 "
b1000001000000010000000101 &
b1000001000000010000000101 _
#208
b10100 /
b10100 c
0'
03
1)
b1 6
b1 B
b1 V
1+
0#
#209
b1 ,
b1 @
b1 X
b1 i
b11 -
b11 F
b11 K
b11 N
b11 S
b11 h
b100100 .
b100100 `
b100100 b
#210
b11111111 1
b11111111 E
b11111111 J
b11111111 M
b11111111 P
b11111111 R
b11111111 \
b11111111 2
b11111111 Y
b11111111 [
b11111111 0
b11111111 A
b11111111 W
b11 C
b11 T
#211
0(
b10 5
b10 I
b10 d
b11111111 C
b11111111 T
b11 G
b11 O
b11111111 D
b11111111 Q
b10 H
b10 L
#212
1#
#213
b10100 !
b10100 ;
#214
b11000 /
b11000 c
b11000 <
b11000 ]
b11000 a
#215
b100 7
b100 ^
b1 9
b110 8
b110 Z
b101 :
b101 U
b1 ?
b1 e
b110 >
b110 g
b10 -
b10 F
b10 K
b10 N
b10 S
b10 h
b101000000010000010000000110 "
b101000000010000010000000110 &
b101000000010000010000000110 _
#216
14
0)
b10 G
b10 O
0#
#217
b1 5
b1 I
b1 d
b1 H
b1 L
b11100 .
b11100 `
b11100 b
#220
1#
#221
b11000 !
b11000 ;
#222
b11100 /
b11100 c
b11100 <
b11100 ]
b11100 a
#223
b11111111111111111111111111110100 7
b11111111111111111111111111110100 ^
b11111101 9
b0 8
b0 Z
b100 :
b100 U
b101 ?
b101 e
b0 >
b0 g
b0 =
b0 f
b100111111010000000000000000 "
b100111111010000000000000000 &
b100111111010000000000000000 _
#224
b1 1
b1 E
b1 J
b1 M
b1 P
b1 R
b1 \
b1 2
b1 Y
b1 [
1'
b11111111 5
b11111111 I
b11111111 d
13
04
b0 6
b0 B
b0 V
0+
0#
#225
b0 1
b0 E
b0 J
b0 M
b0 P
b0 R
b0 \
b0 2
b0 Y
b0 [
b10000 /
b10000 c
b1 5
b1 I
b1 d
b1 C
b1 T
b0 G
b0 O
b1 D
b1 Q
b0 ,
b0 @
b0 X
b0 i
b0 -
b0 F
b0 K
b0 N
b0 S
b0 h
b10000 .
b10000 `
b10000 b
#226
1(
b0 5
b0 I
b0 d
b0 C
b0 T
b0 D
b0 Q
b0 0
b0 A
b0 W
b0 H
b0 L
#228
1#
#229
b10000 !
b10000 ;
#230
b10100 <
b10100 ]
b10100 a
#231
b10000 7
b10000 ^
b100 9
b101 8
b101 Z
b1 :
b1 U
b100 ?
b100 e
b101 >
b101 g
b100 =
b100 f
b1000001000000010000000101 "
b1000001000000010000000101 &
b1000001000000010000000101 _
#232
b10100 /
b10100 c
0'
03
1)
b1 6
b1 B
b1 V
1+
0#
#233
b1 ,
b1 @
b1 X
b1 i
b10 -
b10 F
b10 K
b10 N
b10 S
b10 h
b100100 .
b100100 `
b100100 b
#234
b11111111 1
b11111111 E
b11111111 J
b11111111 M
b11111111 P
b11111111 R
b11111111 \
b11111111 2
b11111111 Y
b11111111 [
b11111111 0
b11111111 A
b11111111 W
b10 C
b10 T
#235
0(
b1 5
b1 I
b1 d
b10 G
b10 O
b11111111 C
b11111111 T
b11111111 D
b11111111 Q
b1 H
b1 L
#236
1#
#237
b10100 !
b10100 ;
#238
b11000 /
b11000 c
b11000 <
b11000 ]
b11000 a
#239
b100 7
b100 ^
b1 9
b110 8
b110 Z
b101 :
b101 U
b1 ?
b1 e
b110 >
b110 g
b1 -
b1 F
b1 K
b1 N
b1 S
b1 h
b101000000010000010000000110 "
b101000000010000010000000110 &
b101000000010000010000000110 _
#240
14
0)
b1 G
b1 O
0#
#241
b11100 /
b11100 c
1'
1%
1(
b0 5
b0 I
b0 d
b0 H
b0 L
b11100 .
b11100 `
b11100 b
#244
1#
#245
b11100 !
b11100 ;
#246
b100000 <
b100000 ]
b100000 a
#247
b111 8
b111 Z
b0 :
b0 U
b111 >
b111 g
b10000010000000111 "
b10000010000000111 &
b10000010000000111 _
#248
b1 1
b1 E
b1 J
b1 M
b1 P
b1 R
b1 \
b100000 /
b100000 c
b1 2
b1 Y
b1 [
0'
0%
04
1)
0+
0#
#249
b1001 1
b1001 E
b1001 J
b1001 M
b1001 P
b1001 R
b1001 \
b1001 2
b1001 Y
b1001 [
b1 C
b1 T
b1 D
b1 Q
b1001 ,
b1001 @
b1001 X
b1001 i
b100100 .
b100100 `
b100100 b
#250
0(
b1010 5
b1010 I
b1010 d
b1001 C
b1001 T
b1001 D
b1001 Q
b11110111 0
b11110111 A
b11110111 W
b1010 H
b1010 L
#252
1#
#253
b100000 !
b100000 ;
#254
b100100 /
b100100 c
b100100 <
b100100 ]
b100100 a
#255
bx00 7
bx00 ^
bx 9
bx 8
bx Z
bx :
bx U
bx ?
bx e
bx >
bx g
bx =
bx f
bx "
bx &
bx _
#256
0#
